-------------------------------------------------------------------------------
Test set: ke.co.safaricom.SocialMediaEntryApplicationTests
-------------------------------------------------------------------------------
Tests run: 1, Failures: 0, Errors: 0, Skipped: 0, Time elapsed: 6.067 s - in ke.co.safaricom.SocialMediaEntryApplicationTests
