ke\co\safaricom\controllers\ImageController.class
ke\co\safaricom\config\LogsManager.class
ke\co\safaricom\config\Props.class
ke\co\safaricom\service\CallbackService.class
ke\co\safaricom\controllers\TelegramController.class
ke\co\safaricom\config\Config.class
ke\co\safaricom\controllers\CallbacksController.class
ke\co\safaricom\controllers\FacebookController.class
ke\co\safaricom\controllers\EntryController.class
ke\co\safaricom\service\TelegramService.class
ke\co\safaricom\service\ImageService.class
ke\co\safaricom\controllers\Twitter.class
ke\co\safaricom\servicedispatcher\Dispatcher.class
ke\co\safaricom\SocialMediaEntryApplication.class
ke\co\safaricom\service\FacebookService.class
